{
    "2": {
        "_id": 2,
        "_date": "Sun Nov 28 2021",
        "_timestamp": 1638080445774,
        "description": "数字图像处理实验: ex06整理",
        "isStarred": false,
        "boards": [
            "@homework"
        ],
        "_isTask": true,
        "isComplete": true,
        "inProgress": false,
        "priority": 1
    },
    "3": {
        "_id": 3,
        "_date": "Sun Nov 28 2021",
        "_timestamp": 1638080619495,
        "description": "人机交互i: ex004 ex005",
        "isStarred": false,
        "boards": [
            "@homework"
        ],
        "_isTask": true,
        "isComplete": true,
        "inProgress": false,
        "priority": 1
    },
    "4": {
        "_id": 4,
        "_date": "Sun Nov 28 2021",
        "_timestamp": 1638080681648,
        "description": "cip: 1130",
        "isStarred": true,
        "boards": [
            "@mooc"
        ],
        "_isTask": true,
        "isComplete": true,
        "inProgress": false,
        "priority": "3"
    },
    "5": {
        "_id": 5,
        "_date": "Mon Nov 29 2021",
        "_timestamp": 1638118912835,
        "description": "ICT 12-10",
        "isStarred": false,
        "boards": [
            "My Board"
        ],
        "_isTask": true,
        "isComplete": true,
        "inProgress": false,
        "priority": "3"
    },
    "6": {
        "_id": 6,
        "_date": "Mon Nov 29 2021",
        "_timestamp": 1638152763887,
        "description": "linux paper",
        "isStarred": false,
        "boards": [
            "My Board"
        ],
        "_isTask": true,
        "isComplete": true,
        "inProgress": false,
        "priority": 1
    },
    "7": {
        "_id": 7,
        "_date": "Sun Nov 28 2021",
        "_timestamp": 1638068990192,
        "description": "demo",
        "isStarred": false,
        "boards": [
            "TODO by oeyoews"
        ],
        "_isTask": true,
        "isComplete": true,
        "inProgress": false,
        "priority": 1
    },
    "8": {
        "_id": 8,
        "_date": "Sun Nov 28 2021",
        "_timestamp": 1638080365313,
        "description": "linuxex004",
        "isStarred": false,
        "boards": [
            "@homework"
        ],
        "_isTask": true,
        "isComplete": true,
        "inProgress": false,
        "priority": 1
    },
    "9": {
        "_id": 9,
        "_date": "Mon Nov 29 2021",
        "_timestamp": 1638157403431,
        "description": "exam: CET4",
        "isStarred": false,
        "boards": [
            "My Board"
        ],
        "_isTask": true,
        "isComplete": true,
        "inProgress": false,
        "priority": "1"
    },
    "10": {
        "_id": 10,
        "_date": "Mon Nov 29 2021",
        "_timestamp": 1638157448328,
        "description": "course: 计算机网络原理",
        "isStarred": false,
        "boards": [
            "My Board"
        ],
        "_isTask": true,
        "isComplete": true,
        "inProgress": false,
        "priority": "1"
    },
    "11": {
        "_id": 11,
        "_date": "Mon Nov 29 2021",
        "_timestamp": 1638173843894,
        "description": "work: ex006(gui)",
        "isStarred": false,
        "boards": [
            "My Board"
        ],
        "_isTask": true,
        "isComplete": true,
        "inProgress": false,
        "priority": "1"
    },
    "12": {
        "_id": 12,
        "_date": "Tue Nov 30 2021",
        "_timestamp": 1638243653781,
        "description": "video format: mpv mp4",
        "isStarred": false,
        "boards": [
            "My Board"
        ],
        "_isTask": true,
        "isComplete": true,
        "inProgress": false,
        "priority": 1
    },
    "13": {
        "_id": 13,
        "_date": "Tue Nov 30 2021",
        "_timestamp": 1638271948707,
        "description": "长难句分析",
        "isStarred": false,
        "boards": [
            "My Board"
        ],
        "_isTask": true,
        "isComplete": true,
        "inProgress": false,
        "priority": 1
    },
    "14": {
        "_id": 14,
        "_date": "Thu Dec 02 2021",
        "_timestamp": 1638427363153,
        "description": "git conflict files",
        "isStarred": false,
        "boards": [
            "My Board"
        ],
        "_isTask": true,
        "isComplete": true,
        "inProgress": false,
        "priority": 1
    },
    "15": {
        "_id": 15,
        "_date": "Thu Dec 02 2021",
        "_timestamp": 1638433964604,
        "description": "paper: two papers(12-20)",
        "isStarred": false,
        "boards": [
            "My Board"
        ],
        "_isTask": true,
        "isComplete": true,
        "inProgress": false,
        "priority": 1
    },
    "16": {
        "_id": 16,
        "_date": "Fri Dec 03 2021",
        "_timestamp": 1638461894522,
        "description": "tidy google star website",
        "isStarred": false,
        "boards": [
            "My Board"
        ],
        "_isTask": true,
        "isComplete": true,
        "inProgress": false,
        "priority": 1
    },
    "17": {
        "_id": 17,
        "_date": "Fri Dec 03 2021",
        "_timestamp": 1638495013709,
        "description": "rebase-conflict",
        "isStarred": false,
        "boards": [
            "My Board"
        ],
        "_isTask": true,
        "isComplete": true,
        "inProgress": false,
        "priority": 1
    },
    "18": {
        "_id": 18,
        "_date": "Fri Dec 03 2021",
        "_timestamp": 1638495039302,
        "description": "rebase",
        "isStarred": false,
        "boards": [
            "My Board"
        ],
        "_isTask": true,
        "isComplete": true,
        "inProgress": false,
        "priority": 1
    },
    "19": {
        "_id": 19,
        "_date": "Fri Dec 03 2021",
        "_timestamp": 1638507813074,
        "description": "sha1 introduce",
        "isStarred": false,
        "boards": [
            "My Board"
        ],
        "_isTask": true,
        "isComplete": true,
        "inProgress": false,
        "priority": 1
    },
    "20": {
        "_id": 20,
        "_date": "Fri Dec 03 2021",
        "_timestamp": 1638508845006,
        "description": "git stash",
        "isStarred": false,
        "boards": [
            "My Board"
        ],
        "_isTask": true,
        "isComplete": true,
        "inProgress": false,
        "priority": 1
    },
    "21": {
        "_id": 21,
        "_date": "Fri Dec 03 2021",
        "_timestamp": 1638510447126,
        "description": "test cp-git-open",
        "isStarred": false,
        "boards": [
            "My Board"
        ],
        "_isTask": true,
        "isComplete": true,
        "inProgress": false,
        "priority": 1
    },
    "22": {
        "_id": 22,
        "_date": "Mon Dec 06 2021",
        "_timestamp": 1638721177014,
        "description": "work: make software(android)",
        "isStarred": false,
        "boards": [
            "My Board"
        ],
        "_isTask": true,
        "isComplete": true,
        "inProgress": false,
        "priority": 1
    },
    "24": {
        "_id": 24,
        "_date": "Tue Dec 07 2021",
        "_timestamp": 1638807152948,
        "description": "mooc cip date: 12-11",
        "isStarred": false,
        "boards": [
            "My Board"
        ],
        "_isTask": true,
        "isComplete": true,
        "inProgress": false,
        "priority": 1
    },
    "25": {
        "_id": 25,
        "_date": "Tue Dec 07 2021",
        "_timestamp": 1638858111815,
        "description": "谷歌学术了解使用",
        "isStarred": false,
        "boards": [
            "My Board"
        ],
        "_isTask": true,
        "isComplete": true,
        "inProgress": false,
        "priority": 1
    },
    "26": {
        "_id": 26,
        "_date": "Tue Dec 07 2021",
        "_timestamp": 1638858141673,
        "description": "论文查重的原理",
        "isStarred": false,
        "boards": [
            "My Board"
        ],
        "_isTask": true,
        "isComplete": true,
        "inProgress": false,
        "priority": 1
    },
    "27": {
        "_id": 27,
        "_date": "Tue Dec 07 2021",
        "_timestamp": 1638865479656,
        "description": "work: ex07(matlab)",
        "isStarred": false,
        "boards": [
            "My Board"
        ],
        "_isTask": true,
        "isComplete": true,
        "inProgress": false,
        "priority": "1"
    },
    "29": {
        "_id": 29,
        "_date": "Mon Dec 13 2021",
        "_timestamp": 1639324824878,
        "description": "exam: DIP",
        "isStarred": false,
        "boards": [
            "My Board"
        ],
        "_isTask": true,
        "isComplete": true,
        "inProgress": false,
        "priority": 1
    },
    "30": {
        "_id": 30,
        "_date": "Mon Dec 13 2021",
        "_timestamp": 1639358497053,
        "description": "paper: 人机交互论文",
        "isStarred": false,
        "boards": [
            "My Board"
        ],
        "_isTask": true,
        "isComplete": true,
        "inProgress": false,
        "priority": 1
    },
    "31": {
        "_id": 31,
        "_date": "Wed Dec 15 2021",
        "_timestamp": 1639583758373,
        "description": "exam: 计算机网络原理",
        "isStarred": false,
        "boards": [
            "My Board"
        ],
        "_isTask": true,
        "isComplete": true,
        "inProgress": false,
        "priority": 1
    },
    "32": {
        "_id": 32,
        "_date": "Wed Dec 15 2021",
        "_timestamp": 1639583785844,
        "description": "work: 整理实验报告",
        "isStarred": false,
        "boards": [
            "My Board"
        ],
        "_isTask": true,
        "isComplete": true,
        "inProgress": false,
        "priority": 1
    },
    "33": {
        "_id": 33,
        "_date": "Mon Dec 20 2021",
        "_timestamp": 1639980164196,
        "description": "gtd: learn gtd and ztd",
        "isStarred": false,
        "boards": [
            "My Board"
        ],
        "_isTask": true,
        "isComplete": true,
        "inProgress": false,
        "priority": 1
    },
    "34": {
        "_id": 34,
        "_date": "Tue Dec 21 2021",
        "_timestamp": 1640016212245,
        "description": "read: English books",
        "isStarred": false,
        "boards": [
            "@daily"
        ],
        "_isTask": true,
        "isComplete": true,
        "inProgress": false,
        "priority": 1
    },
    "35": {
        "_id": 35,
        "_date": "Tue Dec 21 2021",
        "_timestamp": 1640016314335,
        "description": "data_struct java",
        "isStarred": false,
        "boards": [
            "@daily"
        ],
        "_isTask": true,
        "isComplete": true,
        "inProgress": false,
        "priority": 1
    },
    "36": {
        "_id": 36,
        "_date": "Tue Dec 21 2021",
        "_timestamp": 1640016359354,
        "description": "ttp",
        "isStarred": false,
        "boards": [
            "My Board"
        ],
        "_isTask": true,
        "isComplete": true,
        "inProgress": false,
        "priority": 1
    },
    "37": {
        "_id": 37,
        "_date": "Tue Dec 21 2021",
        "_timestamp": 1640016427348,
        "description": "youtube 408 lessones",
        "isStarred": false,
        "boards": [
            "@daily"
        ],
        "_isTask": true,
        "isComplete": true,
        "inProgress": false,
        "priority": 1
    },
    "38": {
        "_id": 38,
        "_date": "Wed Dec 22 2021",
        "_timestamp": 1640143480802,
        "description": "java: learn basic",
        "isStarred": false,
        "boards": [
            "My Board"
        ],
        "_isTask": true,
        "isComplete": true,
        "inProgress": false,
        "priority": 1
    },
    "39": {
        "_id": 39,
        "_date": "Sun Dec 26 2021",
        "_timestamp": 1640503437452,
        "description": "migre to nodejs-tiddlywiki",
        "isStarred": false,
        "boards": [
            "My Board"
        ],
        "_isTask": true,
        "isComplete": true,
        "inProgress": false,
        "priority": 1
    }
}