{
    "2": {
        "_id": 2,
        "_date": "Sun Nov 28 2021",
        "_timestamp": 1638069790808,
        "description": "Update",
        "isStarred": false,
        "boards": [
            "@coding"
        ],
        "_isTask": true,
        "isComplete": true,
        "inProgress": false,
        "priority": 1
    },
    "3": {
        "_id": 3,
        "_date": "Sun Nov 28 2021",
        "_timestamp": 1638069344574,
        "description": "taskbook-first.md",
        "isStarred": false,
        "boards": [
            "My Board"
        ],
        "_isTask": false,
        "priority": "3"
    },
    "4": {
        "_id": 4,
        "_date": "Sun Nov 28 2021",
        "_timestamp": 1638070595851,
        "description": "overridee",
        "isStarred": false,
        "boards": [
            "My Board"
        ],
        "_isTask": true,
        "isComplete": false,
        "inProgress": false,
        "priority": 1
    },
    "5": {
        "_id": 5,
        "_date": "Sun Nov 28 2021",
        "_timestamp": 1638070719734,
        "description": "new by",
        "isStarred": false,
        "boards": [
            "My Board"
        ],
        "_isTask": false
    },
    "6": {
        "_id": 6,
        "_date": "Sun Nov 28 2021",
        "_timestamp": 1638069668580,
        "description": "Improve documentation",
        "isStarred": true,
        "boards": [
            "My Board"
        ],
        "_isTask": true,
        "isComplete": false,
        "inProgress": false,
        "priority": 1
    },
    "7": {
        "_id": 7,
        "_date": "Sun Nov 28 2021",
        "_timestamp": 1638070848896,
        "description": "thisis a dtes",
        "isStarred": false,
        "boards": [
            "@temp"
        ],
        "_isTask": true,
        "isComplete": false,
        "inProgress": false,
        "priority": 1
    },
    "8": {
        "_id": 8,
        "_date": "Sun Nov 28 2021",
        "_timestamp": 1638071152886,
        "description": "advance",
        "isStarred": false,
        "boards": [
            "My Board"
        ],
        "_isTask": true,
        "isComplete": false,
        "inProgress": false,
        "priority": 1
    },
    "9": {
        "_id": 9,
        "_date": "Sun Nov 28 2021",
        "_timestamp": 1638071157462,
        "description": "advance",
        "isStarred": false,
        "boards": [
            "My Board"
        ],
        "_isTask": true,
        "isComplete": false,
        "inProgress": false,
        "priority": "1"
    },
    "10": {
        "_id": 10,
        "_date": "Sun Nov 28 2021",
        "_timestamp": 1638094143374,
        "description": "tmp",
        "isStarred": true,
        "boards": [
            "My Board"
        ],
        "_isTask": true,
        "isComplete": false,
        "inProgress": false,
        "priority": 1
    },
    "11": {
        "_id": 11,
        "_date": "Mon Nov 29 2021",
        "_timestamp": 1638119034468,
        "description": "demo",
        "isStarred": false,
        "boards": [
            "My Board"
        ],
        "_isTask": true,
        "isComplete": false,
        "inProgress": false,
        "priority": 1
    },
    "12": {
        "_id": 12,
        "_date": "Wed Dec 01 2021",
        "_timestamp": 1638288375206,
        "description": "22",
        "isStarred": false,
        "boards": [
            "My Board"
        ],
        "_isTask": false
    },
    "13": {
        "_id": 13,
        "_date": "Fri Dec 03 2021",
        "_timestamp": 1638513285995,
        "description": "this is a test",
        "isStarred": false,
        "boards": [
            "@Notes"
        ],
        "_isTask": false
    },
    "14": {
        "_id": 14,
        "_date": "Fri Dec 03 2021",
        "_timestamp": 1638513247488,
        "description": "This is a test",
        "isStarred": false,
        "boards": [
            "My Board"
        ],
        "_isTask": false
    },
    "15": {
        "_id": 15,
        "_date": "Fri Dec 03 2021",
        "_timestamp": 1638513272556,
        "description": "Notes this is a test",
        "isStarred": false,
        "boards": [
            "My Board"
        ],
        "_isTask": false
    },
    "16": {
        "_id": 16,
        "_date": "Mon Dec 06 2021",
        "_timestamp": 1638754509915,
        "description": "右移符号：21",
        "isStarred": false,
        "boards": [
            "My Board"
        ],
        "_isTask": true,
        "isComplete": true,
        "inProgress": false,
        "priority": 1
    },
    "17": {
        "_id": 17,
        "_date": "Tue Dec 07 2021",
        "_timestamp": 1638885471132,
        "description": "go 课程",
        "isStarred": false,
        "boards": [
            "My Board"
        ],
        "_isTask": false
    }
}